{
  "status": 200,
  "results": [
    {
      "group_matched": false,
      "distance_mi": 6,
      "content_hash": "rmAud5fNrCnmUGoTrDupzuNUYZc9c0IOdCVYsLbCR2UMd",
      "common_friends": [],
      "common_likes": [],
      "common_friend_count": 0,
      "common_like_count": 0,
      "connection_count": 0,
      "_id": "59b9884baca1dedc0ab3dee0",
      "bio": "",
      "birth_date": "1986-01-12T01:50:13.635Z",
      "name": "Ananka",
      "ping_time": "2014-12-09T00:00:00.000Z",
      "photos": [
        {
          "id": "6c60b288-6ed5-4209-880b-015e2c5d41ac",
          "url": "http://images.gotinder.com/59b9884baca1dedc0ab3dee0/1080x1080_6c60b288-6ed5-4209-880b-015e2c5d41ac.jpg",
          "processedFiles": [
            {
              "url": "http://images.gotinder.com/59b9884baca1dedc0ab3dee0/640x640_6c60b288-6ed5-4209-880b-015e2c5d41ac.jpg",
              "height": 640,
              "width": 640
            },
            {
              "url": "http://images.gotinder.com/59b9884baca1dedc0ab3dee0/320x320_6c60b288-6ed5-4209-880b-015e2c5d41ac.jpg",
              "height": 320,
              "width": 320
            },
            {
              "url": "http://images.gotinder.com/59b9884baca1dedc0ab3dee0/172x172_6c60b288-6ed5-4209-880b-015e2c5d41ac.jpg",
              "height": 172,
              "width": 172
            },
            {
              "url": "http://images.gotinder.com/59b9884baca1dedc0ab3dee0/84x84_6c60b288-6ed5-4209-880b-015e2c5d41ac.jpg",
              "height": 84,
              "width": 84
            }
          ],
          "fileName": "6c60b288-6ed5-4209-880b-015e2c5d41ac.jpg",
          "extension": "jpg",
          "main": true
        },
        {
          "id": "972d26cd-1d8b-48ab-b9a3-525bb305c6d6",
          "url": "http://images.gotinder.com/59b9884baca1dedc0ab3dee0/1080x1080_972d26cd-1d8b-48ab-b9a3-525bb305c6d6.jpg",
          "processedFiles": [
            {
              "url": "http://images.gotinder.com/59b9884baca1dedc0ab3dee0/640x640_972d26cd-1d8b-48ab-b9a3-525bb305c6d6.jpg",
              "height": 640,
              "width": 640
            },
            {
              "url": "http://images.gotinder.com/59b9884baca1dedc0ab3dee0/320x320_972d26cd-1d8b-48ab-b9a3-525bb305c6d6.jpg",
              "height": 320,
              "width": 320
            },
            {
              "url": "http://images.gotinder.com/59b9884baca1dedc0ab3dee0/172x172_972d26cd-1d8b-48ab-b9a3-525bb305c6d6.jpg",
              "height": 172,
              "width": 172
            },
            {
              "url": "http://images.gotinder.com/59b9884baca1dedc0ab3dee0/84x84_972d26cd-1d8b-48ab-b9a3-525bb305c6d6.jpg",
              "height": 84,
              "width": 84
            }
          ],
          "fileName": "972d26cd-1d8b-48ab-b9a3-525bb305c6d6.jpg",
          "extension": "jpg"
        },
        {
          "id": "ae1e45ab-b0b5-4fd9-9f02-0112513da95e",
          "url": "http://images.gotinder.com/59b9884baca1dedc0ab3dee0/1080x1080_ae1e45ab-b0b5-4fd9-9f02-0112513da95e.jpg",
          "processedFiles": [
            {
              "url": "http://images.gotinder.com/59b9884baca1dedc0ab3dee0/640x640_ae1e45ab-b0b5-4fd9-9f02-0112513da95e.jpg",
              "height": 640,
              "width": 640
            },
            {
              "url": "http://images.gotinder.com/59b9884baca1dedc0ab3dee0/320x320_ae1e45ab-b0b5-4fd9-9f02-0112513da95e.jpg",
              "height": 320,
              "width": 320
            },
            {
              "url": "http://images.gotinder.com/59b9884baca1dedc0ab3dee0/172x172_ae1e45ab-b0b5-4fd9-9f02-0112513da95e.jpg",
              "height": 172,
              "width": 172
            },
            {
              "url": "http://images.gotinder.com/59b9884baca1dedc0ab3dee0/84x84_ae1e45ab-b0b5-4fd9-9f02-0112513da95e.jpg",
              "height": 84,
              "width": 84
            }
          ],
          "fileName": "ae1e45ab-b0b5-4fd9-9f02-0112513da95e.jpg",
          "extension": "jpg"
        },
        {
          "id": "9afe31e9-1e42-4b30-8b31-80ce3650745a",
          "url": "http://images.gotinder.com/59b9884baca1dedc0ab3dee0/1080x1080_9afe31e9-1e42-4b30-8b31-80ce3650745a.jpg",
          "processedFiles": [
            {
              "url": "http://images.gotinder.com/59b9884baca1dedc0ab3dee0/640x640_9afe31e9-1e42-4b30-8b31-80ce3650745a.jpg",
              "height": 640,
              "width": 640
            },
            {
              "url": "http://images.gotinder.com/59b9884baca1dedc0ab3dee0/320x320_9afe31e9-1e42-4b30-8b31-80ce3650745a.jpg",
              "height": 320,
              "width": 320
            },
            {
              "url": "http://images.gotinder.com/59b9884baca1dedc0ab3dee0/172x172_9afe31e9-1e42-4b30-8b31-80ce3650745a.jpg",
              "height": 172,
              "width": 172
            },
            {
              "url": "http://images.gotinder.com/59b9884baca1dedc0ab3dee0/84x84_9afe31e9-1e42-4b30-8b31-80ce3650745a.jpg",
              "height": 84,
              "width": 84
            }
          ],
          "fileName": "9afe31e9-1e42-4b30-8b31-80ce3650745a.jpg",
          "extension": "jpg"
        }
      ],
      "jobs": [],
      "schools": [
        {
          "id": "139359116110292",
          "name": "estomatologia UAP"
        }
      ],
      "teaser": {
        "type": "school",
        "string": "estomatologia UAP"
      },
      "teasers": [
        {
          "type": "school",
          "string": "estomatologia UAP"
        }
      ],
      "gender": 1,
      "birth_date_info": "fuzzy birthdate active, not displaying real birth_date",
      "s_number": 413395853
    },
    {
      "group_matched": false,
      "distance_mi": 4,
      "content_hash": "R1QhwpCnGu70SmEfdAcZaTPTEwFPEURji8HZdUjh03Ill",
      "common_friends": [],
      "common_likes": [],
      "common_friend_count": 0,
      "common_like_count": 0,
      "connection_count": 0,
      "_id": "58cfebcfa472a7532820b8dd",
      "bio": "",
      "birth_date": "1998-01-12T01:50:13.635Z",
      "name": "Mirella",
      "ping_time": "2014-12-09T00:00:00.000Z",
      "photos": [
        {
          "id": "7eec963f-ee5f-4d23-969a-be165d1c5be1",
          "url": "http://images.gotinder.com/58cfebcfa472a7532820b8dd/7eec963f-ee5f-4d23-969a-be165d1c5be1.jpg",
          "processedFiles": [
            {
              "url": "http://images.gotinder.com/58cfebcfa472a7532820b8dd/640x640_7eec963f-ee5f-4d23-969a-be165d1c5be1.jpg",
              "height": 640,
              "width": 640
            },
            {
              "url": "http://images.gotinder.com/58cfebcfa472a7532820b8dd/320x320_7eec963f-ee5f-4d23-969a-be165d1c5be1.jpg",
              "height": 320,
              "width": 320
            },
            {
              "url": "http://images.gotinder.com/58cfebcfa472a7532820b8dd/172x172_7eec963f-ee5f-4d23-969a-be165d1c5be1.jpg",
              "height": 172,
              "width": 172
            },
            {
              "url": "http://images.gotinder.com/58cfebcfa472a7532820b8dd/84x84_7eec963f-ee5f-4d23-969a-be165d1c5be1.jpg",
              "height": 84,
              "width": 84
            }
          ],
          "fileName": "7eec963f-ee5f-4d23-969a-be165d1c5be1.jpg",
          "extension": "jpg"
        },
        {
          "id": "4d4ffbd2-ebb3-4a0f-a84b-f3400bb2df42",
          "url": "http://images.gotinder.com/58cfebcfa472a7532820b8dd/4d4ffbd2-ebb3-4a0f-a84b-f3400bb2df42.jpg",
          "processedFiles": [
            {
              "url": "http://images.gotinder.com/58cfebcfa472a7532820b8dd/640x640_4d4ffbd2-ebb3-4a0f-a84b-f3400bb2df42.jpg",
              "height": 640,
              "width": 640
            },
            {
              "url": "http://images.gotinder.com/58cfebcfa472a7532820b8dd/320x320_4d4ffbd2-ebb3-4a0f-a84b-f3400bb2df42.jpg",
              "height": 320,
              "width": 320
            },
            {
              "url": "http://images.gotinder.com/58cfebcfa472a7532820b8dd/172x172_4d4ffbd2-ebb3-4a0f-a84b-f3400bb2df42.jpg",
              "height": 172,
              "width": 172
            },
            {
              "url": "http://images.gotinder.com/58cfebcfa472a7532820b8dd/84x84_4d4ffbd2-ebb3-4a0f-a84b-f3400bb2df42.jpg",
              "height": 84,
              "width": 84
            }
          ],
          "fileName": "4d4ffbd2-ebb3-4a0f-a84b-f3400bb2df42.jpg",
          "extension": "jpg"
        },
        {
          "id": "0ee77d0e-3031-4634-9c54-a76d34b794e0",
          "url": "http://images.gotinder.com/58cfebcfa472a7532820b8dd/0ee77d0e-3031-4634-9c54-a76d34b794e0.jpg",
          "processedFiles": [
            {
              "url": "http://images.gotinder.com/58cfebcfa472a7532820b8dd/640x640_0ee77d0e-3031-4634-9c54-a76d34b794e0.jpg",
              "height": 640,
              "width": 640
            },
            {
              "url": "http://images.gotinder.com/58cfebcfa472a7532820b8dd/320x320_0ee77d0e-3031-4634-9c54-a76d34b794e0.jpg",
              "height": 320,
              "width": 320
            },
            {
              "url": "http://images.gotinder.com/58cfebcfa472a7532820b8dd/172x172_0ee77d0e-3031-4634-9c54-a76d34b794e0.jpg",
              "height": 172,
              "width": 172
            },
            {
              "url": "http://images.gotinder.com/58cfebcfa472a7532820b8dd/84x84_0ee77d0e-3031-4634-9c54-a76d34b794e0.jpg",
              "height": 84,
              "width": 84
            }
          ],
          "fileName": "0ee77d0e-3031-4634-9c54-a76d34b794e0.jpg",
          "extension": "jpg"
        },
        {
          "id": "ef39cd13-59d1-47c1-8230-46a47f088904",
          "url": "http://images.gotinder.com/58cfebcfa472a7532820b8dd/1080x1080_ef39cd13-59d1-47c1-8230-46a47f088904.jpg",
          "processedFiles": [
            {
              "url": "http://images.gotinder.com/58cfebcfa472a7532820b8dd/640x640_ef39cd13-59d1-47c1-8230-46a47f088904.jpg",
              "height": 640,
              "width": 640
            },
            {
              "url": "http://images.gotinder.com/58cfebcfa472a7532820b8dd/320x320_ef39cd13-59d1-47c1-8230-46a47f088904.jpg",
              "height": 320,
              "width": 320
            },
            {
              "url": "http://images.gotinder.com/58cfebcfa472a7532820b8dd/172x172_ef39cd13-59d1-47c1-8230-46a47f088904.jpg",
              "height": 172,
              "width": 172
            },
            {
              "url": "http://images.gotinder.com/58cfebcfa472a7532820b8dd/84x84_ef39cd13-59d1-47c1-8230-46a47f088904.jpg",
              "height": 84,
              "width": 84
            }
          ],
          "fileName": "ef39cd13-59d1-47c1-8230-46a47f088904.jpg",
          "extension": "jpg"
        },
        {
          "id": "90c0b4d2-be66-4b35-8cdc-1bd177ccfa6c",
          "url": "http://images.gotinder.com/58cfebcfa472a7532820b8dd/1080x1080_90c0b4d2-be66-4b35-8cdc-1bd177ccfa6c.jpg",
          "processedFiles": [
            {
              "url": "http://images.gotinder.com/58cfebcfa472a7532820b8dd/640x640_90c0b4d2-be66-4b35-8cdc-1bd177ccfa6c.jpg",
              "height": 640,
              "width": 640
            },
            {
              "url": "http://images.gotinder.com/58cfebcfa472a7532820b8dd/320x320_90c0b4d2-be66-4b35-8cdc-1bd177ccfa6c.jpg",
              "height": 320,
              "width": 320
            },
            {
              "url": "http://images.gotinder.com/58cfebcfa472a7532820b8dd/172x172_90c0b4d2-be66-4b35-8cdc-1bd177ccfa6c.jpg",
              "height": 172,
              "width": 172
            },
            {
              "url": "http://images.gotinder.com/58cfebcfa472a7532820b8dd/84x84_90c0b4d2-be66-4b35-8cdc-1bd177ccfa6c.jpg",
              "height": 84,
              "width": 84
            }
          ],
          "fileName": "90c0b4d2-be66-4b35-8cdc-1bd177ccfa6c.jpg",
          "extension": "jpg"
        },
        {
          "id": "27439f13-9280-400f-98ac-9fe47badcb33",
          "url": "http://images.gotinder.com/58cfebcfa472a7532820b8dd/1080x1080_27439f13-9280-400f-98ac-9fe47badcb33.jpg",
          "processedFiles": [
            {
              "url": "http://images.gotinder.com/58cfebcfa472a7532820b8dd/640x640_27439f13-9280-400f-98ac-9fe47badcb33.jpg",
              "height": 640,
              "width": 640
            },
            {
              "url": "http://images.gotinder.com/58cfebcfa472a7532820b8dd/320x320_27439f13-9280-400f-98ac-9fe47badcb33.jpg",
              "height": 320,
              "width": 320
            },
            {
              "url": "http://images.gotinder.com/58cfebcfa472a7532820b8dd/172x172_27439f13-9280-400f-98ac-9fe47badcb33.jpg",
              "height": 172,
              "width": 172
            },
            {
              "url": "http://images.gotinder.com/58cfebcfa472a7532820b8dd/84x84_27439f13-9280-400f-98ac-9fe47badcb33.jpg",
              "height": 84,
              "width": 84
            }
          ],
          "fileName": "27439f13-9280-400f-98ac-9fe47badcb33.jpg",
          "extension": "jpg"
        }
      ],
      "jobs": [
        {
          "company": {
            "name": "Agente Secreto con Perry el Ornitorrinco"
          }
        }
      ],
      "schools": [
        {
          "id": "524444924264259",
          "name": "Alas Peruanas - filial Arequipa"
        }
      ],
      "teaser": {
        "type": "position",
        "string": "Agente Secreto con Perry el Ornitorrinco"
      },
      "teasers": [
        {
          "type": "position",
          "string": "Agente Secreto con Perry el Ornitorrinco"
        },
        {
          "type": "school",
          "string": "Alas Peruanas - filial Arequipa"
        }
      ],
      "gender": 1,
      "birth_date_info": "fuzzy birthdate active, not displaying real birth_date",
      "s_number": 319161019
    },
    {
      "group_matched": false,
      "distance_mi": 5,
      "content_hash": "zrDup1ijDsRZCb2SQxHo0H8etdbIVSwMU7aCafZ8U3gid1",
      "common_friends": [],
      "common_likes": [],
      "common_friend_count": 0,
      "common_like_count": 0,
      "connection_count": 0,
      "_id": "59fcdeba454f3b990c233387",
      "bio": "",
      "birth_date": "1999-01-12T01:50:13.635Z",
      "name": "Nicole",
      "ping_time": "2014-12-09T00:00:00.000Z",
      "photos": [
        {
          "id": "fce8643c-9588-4eb5-a505-5d880c7eb258",
          "url": "http://images.gotinder.com/59fcdeba454f3b990c233387/1080x1080_fce8643c-9588-4eb5-a505-5d880c7eb258.jpg",
          "processedFiles": [
            {
              "url": "http://images.gotinder.com/59fcdeba454f3b990c233387/640x640_fce8643c-9588-4eb5-a505-5d880c7eb258.jpg",
              "height": 640,
              "width": 640
            },
            {
              "url": "http://images.gotinder.com/59fcdeba454f3b990c233387/320x320_fce8643c-9588-4eb5-a505-5d880c7eb258.jpg",
              "height": 320,
              "width": 320
            },
            {
              "url": "http://images.gotinder.com/59fcdeba454f3b990c233387/172x172_fce8643c-9588-4eb5-a505-5d880c7eb258.jpg",
              "height": 172,
              "width": 172
            },
            {
              "url": "http://images.gotinder.com/59fcdeba454f3b990c233387/84x84_fce8643c-9588-4eb5-a505-5d880c7eb258.jpg",
              "height": 84,
              "width": 84
            }
          ],
          "fileName": "fce8643c-9588-4eb5-a505-5d880c7eb258.jpg",
          "extension": "jpg"
        },
        {
          "id": "80d317c5-6a7a-499f-8c3d-70c3c39950f1",
          "url": "http://images.gotinder.com/59fcdeba454f3b990c233387/1080x1080_80d317c5-6a7a-499f-8c3d-70c3c39950f1.jpg",
          "processedFiles": [
            {
              "url": "http://images.gotinder.com/59fcdeba454f3b990c233387/640x640_80d317c5-6a7a-499f-8c3d-70c3c39950f1.jpg",
              "height": 640,
              "width": 640
            },
            {
              "url": "http://images.gotinder.com/59fcdeba454f3b990c233387/320x320_80d317c5-6a7a-499f-8c3d-70c3c39950f1.jpg",
              "height": 320,
              "width": 320
            },
            {
              "url": "http://images.gotinder.com/59fcdeba454f3b990c233387/172x172_80d317c5-6a7a-499f-8c3d-70c3c39950f1.jpg",
              "height": 172,
              "width": 172
            },
            {
              "url": "http://images.gotinder.com/59fcdeba454f3b990c233387/84x84_80d317c5-6a7a-499f-8c3d-70c3c39950f1.jpg",
              "height": 84,
              "width": 84
            }
          ],
          "fileName": "80d317c5-6a7a-499f-8c3d-70c3c39950f1.jpg",
          "extension": "jpg"
        },
        {
          "id": "99675ad9-2f6b-40f6-beb2-5e527af500c1",
          "url": "http://images.gotinder.com/59fcdeba454f3b990c233387/1080x1080_99675ad9-2f6b-40f6-beb2-5e527af500c1.jpg",
          "processedFiles": [
            {
              "url": "http://images.gotinder.com/59fcdeba454f3b990c233387/640x640_99675ad9-2f6b-40f6-beb2-5e527af500c1.jpg",
              "height": 640,
              "width": 640
            },
            {
              "url": "http://images.gotinder.com/59fcdeba454f3b990c233387/320x320_99675ad9-2f6b-40f6-beb2-5e527af500c1.jpg",
              "height": 320,
              "width": 320
            },
            {
              "url": "http://images.gotinder.com/59fcdeba454f3b990c233387/172x172_99675ad9-2f6b-40f6-beb2-5e527af500c1.jpg",
              "height": 172,
              "width": 172
            },
            {
              "url": "http://images.gotinder.com/59fcdeba454f3b990c233387/84x84_99675ad9-2f6b-40f6-beb2-5e527af500c1.jpg",
              "height": 84,
              "width": 84
            }
          ],
          "fileName": "99675ad9-2f6b-40f6-beb2-5e527af500c1.jpg",
          "extension": "jpg"
        },
        {
          "id": "c8a58199-4442-4285-9421-3d0a373b1d35",
          "url": "http://images.gotinder.com/59fcdeba454f3b990c233387/1080x1080_c8a58199-4442-4285-9421-3d0a373b1d35.jpg",
          "processedFiles": [
            {
              "url": "http://images.gotinder.com/59fcdeba454f3b990c233387/640x640_c8a58199-4442-4285-9421-3d0a373b1d35.jpg",
              "height": 640,
              "width": 640
            },
            {
              "url": "http://images.gotinder.com/59fcdeba454f3b990c233387/320x320_c8a58199-4442-4285-9421-3d0a373b1d35.jpg",
              "height": 320,
              "width": 320
            },
            {
              "url": "http://images.gotinder.com/59fcdeba454f3b990c233387/172x172_c8a58199-4442-4285-9421-3d0a373b1d35.jpg",
              "height": 172,
              "width": 172
            },
            {
              "url": "http://images.gotinder.com/59fcdeba454f3b990c233387/84x84_c8a58199-4442-4285-9421-3d0a373b1d35.jpg",
              "height": 84,
              "width": 84
            }
          ],
          "fileName": "c8a58199-4442-4285-9421-3d0a373b1d35.jpg",
          "extension": "jpg"
        },
        {
          "id": "f0711707-020e-4fa8-8cde-511dac423dce",
          "url": "http://images.gotinder.com/59fcdeba454f3b990c233387/1080x1080_f0711707-020e-4fa8-8cde-511dac423dce.jpg",
          "processedFiles": [
            {
              "url": "http://images.gotinder.com/59fcdeba454f3b990c233387/640x640_f0711707-020e-4fa8-8cde-511dac423dce.jpg",
              "height": 640,
              "width": 640
            },
            {
              "url": "http://images.gotinder.com/59fcdeba454f3b990c233387/320x320_f0711707-020e-4fa8-8cde-511dac423dce.jpg",
              "height": 320,
              "width": 320
            },
            {
              "url": "http://images.gotinder.com/59fcdeba454f3b990c233387/172x172_f0711707-020e-4fa8-8cde-511dac423dce.jpg",
              "height": 172,
              "width": 172
            },
            {
              "url": "http://images.gotinder.com/59fcdeba454f3b990c233387/84x84_f0711707-020e-4fa8-8cde-511dac423dce.jpg",
              "height": 84,
              "width": 84
            }
          ],
          "fileName": "f0711707-020e-4fa8-8cde-511dac423dce.jpg",
          "extension": "jpg"
        }
      ],
      "jobs": [],
      "schools": [],
      "teaser": {
        "string": ""
      },
      "teasers": [],
      "gender": 1,
      "birth_date_info": "fuzzy birthdate active, not displaying real birth_date",
      "s_number": 422545692
    },
    {
      "group_matched": false,
      "distance_mi": 3,
      "content_hash": "VvEt4gTams6H6bhX2I76Ce5UraCb5spHVc3Tg9F02Ikr",
      "common_friends": [],
      "common_likes": [],
      "common_friend_count": 0,
      "common_like_count": 0,
      "connection_count": 0,
      "_id": "57a5ed5632bc03c30608b64c",
      "bio": "18😉 \nUCSP\nInstagram: Ursu_99",
      "birth_date": "1999-01-12T01:50:13.635Z",
      "name": "Ursula",
      "ping_time": "2014-12-09T00:00:00.000Z",
      "photos": [
        {
          "id": "834af216-72b2-4f6b-9a89-24272377d7e7",
          "url": "http://images.gotinder.com/57a5ed5632bc03c30608b64c/834af216-72b2-4f6b-9a89-24272377d7e7.jpg",
          "processedFiles": [
            {
              "url": "http://images.gotinder.com/57a5ed5632bc03c30608b64c/640x640_834af216-72b2-4f6b-9a89-24272377d7e7.jpg",
              "height": 640,
              "width": 640
            },
            {
              "url": "http://images.gotinder.com/57a5ed5632bc03c30608b64c/320x320_834af216-72b2-4f6b-9a89-24272377d7e7.jpg",
              "height": 320,
              "width": 320
            },
            {
              "url": "http://images.gotinder.com/57a5ed5632bc03c30608b64c/172x172_834af216-72b2-4f6b-9a89-24272377d7e7.jpg",
              "height": 172,
              "width": 172
            },
            {
              "url": "http://images.gotinder.com/57a5ed5632bc03c30608b64c/84x84_834af216-72b2-4f6b-9a89-24272377d7e7.jpg",
              "height": 84,
              "width": 84
            }
          ],
          "fileName": "834af216-72b2-4f6b-9a89-24272377d7e7.jpg",
          "extension": "jpg"
        },
        {
          "id": "05c524ba-dadf-45bf-895f-e3dd4093b93b",
          "url": "http://images.gotinder.com/57a5ed5632bc03c30608b64c/1080x1080_05c524ba-dadf-45bf-895f-e3dd4093b93b.jpg",
          "processedFiles": [
            {
              "url": "http://images.gotinder.com/57a5ed5632bc03c30608b64c/640x640_05c524ba-dadf-45bf-895f-e3dd4093b93b.jpg",
              "height": 640,
              "width": 640
            },
            {
              "url": "http://images.gotinder.com/57a5ed5632bc03c30608b64c/320x320_05c524ba-dadf-45bf-895f-e3dd4093b93b.jpg",
              "height": 320,
              "width": 320
            },
            {
              "url": "http://images.gotinder.com/57a5ed5632bc03c30608b64c/172x172_05c524ba-dadf-45bf-895f-e3dd4093b93b.jpg",
              "height": 172,
              "width": 172
            },
            {
              "url": "http://images.gotinder.com/57a5ed5632bc03c30608b64c/84x84_05c524ba-dadf-45bf-895f-e3dd4093b93b.jpg",
              "height": 84,
              "width": 84
            }
          ],
          "fileName": "05c524ba-dadf-45bf-895f-e3dd4093b93b.jpg",
          "extension": "jpg",
          "main": false
        },
        {
          "id": "6a52482f-b428-4778-8577-e43e55b4ac0b",
          "url": "http://images.gotinder.com/57a5ed5632bc03c30608b64c/1080x1080_6a52482f-b428-4778-8577-e43e55b4ac0b.jpg",
          "processedFiles": [
            {
              "url": "http://images.gotinder.com/57a5ed5632bc03c30608b64c/640x640_6a52482f-b428-4778-8577-e43e55b4ac0b.jpg",
              "height": 640,
              "width": 640
            },
            {
              "url": "http://images.gotinder.com/57a5ed5632bc03c30608b64c/320x320_6a52482f-b428-4778-8577-e43e55b4ac0b.jpg",
              "height": 320,
              "width": 320
            },
            {
              "url": "http://images.gotinder.com/57a5ed5632bc03c30608b64c/172x172_6a52482f-b428-4778-8577-e43e55b4ac0b.jpg",
              "height": 172,
              "width": 172
            },
            {
              "url": "http://images.gotinder.com/57a5ed5632bc03c30608b64c/84x84_6a52482f-b428-4778-8577-e43e55b4ac0b.jpg",
              "height": 84,
              "width": 84
            }
          ],
          "fileName": "6a52482f-b428-4778-8577-e43e55b4ac0b.jpg",
          "extension": "jpg",
          "main": false
        },
        {
          "id": "7656ab09-f227-42ad-87d2-f94c56dc8ddf",
          "url": "http://images.gotinder.com/57a5ed5632bc03c30608b64c/1080x1080_7656ab09-f227-42ad-87d2-f94c56dc8ddf.jpg",
          "processedFiles": [
            {
              "url": "http://images.gotinder.com/57a5ed5632bc03c30608b64c/640x640_7656ab09-f227-42ad-87d2-f94c56dc8ddf.jpg",
              "height": 640,
              "width": 640
            },
            {
              "url": "http://images.gotinder.com/57a5ed5632bc03c30608b64c/320x320_7656ab09-f227-42ad-87d2-f94c56dc8ddf.jpg",
              "height": 320,
              "width": 320
            },
            {
              "url": "http://images.gotinder.com/57a5ed5632bc03c30608b64c/172x172_7656ab09-f227-42ad-87d2-f94c56dc8ddf.jpg",
              "height": 172,
              "width": 172
            },
            {
              "url": "http://images.gotinder.com/57a5ed5632bc03c30608b64c/84x84_7656ab09-f227-42ad-87d2-f94c56dc8ddf.jpg",
              "height": 84,
              "width": 84
            }
          ],
          "fileName": "7656ab09-f227-42ad-87d2-f94c56dc8ddf.jpg",
          "extension": "jpg"
        },
        {
          "id": "79189bcb-bf07-4568-963b-2b9230f3a1da",
          "url": "http://images.gotinder.com/57a5ed5632bc03c30608b64c/1080x1080_79189bcb-bf07-4568-963b-2b9230f3a1da.jpg",
          "processedFiles": [
            {
              "url": "http://images.gotinder.com/57a5ed5632bc03c30608b64c/640x640_79189bcb-bf07-4568-963b-2b9230f3a1da.jpg",
              "height": 640,
              "width": 640
            },
            {
              "url": "http://images.gotinder.com/57a5ed5632bc03c30608b64c/320x320_79189bcb-bf07-4568-963b-2b9230f3a1da.jpg",
              "height": 320,
              "width": 320
            },
            {
              "url": "http://images.gotinder.com/57a5ed5632bc03c30608b64c/172x172_79189bcb-bf07-4568-963b-2b9230f3a1da.jpg",
              "height": 172,
              "width": 172
            },
            {
              "url": "http://images.gotinder.com/57a5ed5632bc03c30608b64c/84x84_79189bcb-bf07-4568-963b-2b9230f3a1da.jpg",
              "height": 84,
              "width": 84
            }
          ],
          "fileName": "79189bcb-bf07-4568-963b-2b9230f3a1da.jpg",
          "extension": "jpg"
        }
      ],
      "jobs": [],
      "schools": [
        {
          "id": "161812906287",
          "name": "Universidad Católica San Pablo"
        }
      ],
      "teaser": {
        "type": "school",
        "string": "Universidad Católica San Pablo"
      },
      "teasers": [
        {
          "type": "school",
          "string": "Universidad Católica San Pablo"
        }
      ],
      "gender": 1,
      "birth_date_info": "fuzzy birthdate active, not displaying real birth_date",
      "s_number": 239575131
    },
    {
      "group_matched": false,
      "distance_mi": 2,
      "content_hash": "4dhXahAaT6eHJzuMH2eC3lCawUw0Cqpi76IbNSnoCmDI90",
      "common_friends": [],
      "common_likes": [],
      "common_friend_count": 0,
      "common_like_count": 0,
      "connection_count": 0,
      "_id": "542181842902e7757781eef5",
      "bio": "",
      "birth_date": "1996-01-12T01:50:13.635Z",
      "name": "Diana",
      "ping_time": "2014-12-09T00:00:00.000Z",
      "photos": [
        {
          "id": "2ab2317a-d016-4aec-b8bc-ab5f3d66c2d3",
          "url": "http://images.gotinder.com/542181842902e7757781eef5/2ab2317a-d016-4aec-b8bc-ab5f3d66c2d3.jpg",
          "processedFiles": [
            {
              "url": "http://images.gotinder.com/542181842902e7757781eef5/640x640_2ab2317a-d016-4aec-b8bc-ab5f3d66c2d3.jpg",
              "height": 640,
              "width": 640
            },
            {
              "url": "http://images.gotinder.com/542181842902e7757781eef5/320x320_2ab2317a-d016-4aec-b8bc-ab5f3d66c2d3.jpg",
              "height": 320,
              "width": 320
            },
            {
              "url": "http://images.gotinder.com/542181842902e7757781eef5/172x172_2ab2317a-d016-4aec-b8bc-ab5f3d66c2d3.jpg",
              "height": 172,
              "width": 172
            },
            {
              "url": "http://images.gotinder.com/542181842902e7757781eef5/84x84_2ab2317a-d016-4aec-b8bc-ab5f3d66c2d3.jpg",
              "height": 84,
              "width": 84
            }
          ],
          "fileName": "2ab2317a-d016-4aec-b8bc-ab5f3d66c2d3.jpg",
          "extension": "jpg"
        },
        {
          "id": "c355125f-5c04-4d32-afcc-7f1056b6d286",
          "url": "http://images.gotinder.com/542181842902e7757781eef5/c355125f-5c04-4d32-afcc-7f1056b6d286.jpg",
          "processedFiles": [
            {
              "url": "http://images.gotinder.com/542181842902e7757781eef5/640x640_c355125f-5c04-4d32-afcc-7f1056b6d286.jpg",
              "height": 640,
              "width": 640
            },
            {
              "url": "http://images.gotinder.com/542181842902e7757781eef5/320x320_c355125f-5c04-4d32-afcc-7f1056b6d286.jpg",
              "height": 320,
              "width": 320
            },
            {
              "url": "http://images.gotinder.com/542181842902e7757781eef5/172x172_c355125f-5c04-4d32-afcc-7f1056b6d286.jpg",
              "height": 172,
              "width": 172
            },
            {
              "url": "http://images.gotinder.com/542181842902e7757781eef5/84x84_c355125f-5c04-4d32-afcc-7f1056b6d286.jpg",
              "height": 84,
              "width": 84
            }
          ],
          "fileName": "c355125f-5c04-4d32-afcc-7f1056b6d286.jpg",
          "extension": "jpg"
        },
        {
          "id": "f646506e-3ec3-44c7-8a4c-ac53446118d1",
          "url": "http://images.gotinder.com/542181842902e7757781eef5/f646506e-3ec3-44c7-8a4c-ac53446118d1.jpg",
          "processedFiles": [
            {
              "url": "http://images.gotinder.com/542181842902e7757781eef5/640x640_f646506e-3ec3-44c7-8a4c-ac53446118d1.jpg",
              "height": 640,
              "width": 640
            },
            {
              "url": "http://images.gotinder.com/542181842902e7757781eef5/320x320_f646506e-3ec3-44c7-8a4c-ac53446118d1.jpg",
              "height": 320,
              "width": 320
            },
            {
              "url": "http://images.gotinder.com/542181842902e7757781eef5/172x172_f646506e-3ec3-44c7-8a4c-ac53446118d1.jpg",
              "height": 172,
              "width": 172
            },
            {
              "url": "http://images.gotinder.com/542181842902e7757781eef5/84x84_f646506e-3ec3-44c7-8a4c-ac53446118d1.jpg",
              "height": 84,
              "width": 84
            }
          ],
          "fileName": "f646506e-3ec3-44c7-8a4c-ac53446118d1.jpg",
          "extension": "jpg"
        },
        {
          "id": "dd6ad80d-65ee-4770-8772-5de3f611cb55",
          "url": "http://images.gotinder.com/542181842902e7757781eef5/dd6ad80d-65ee-4770-8772-5de3f611cb55.jpg",
          "processedFiles": [
            {
              "url": "http://images.gotinder.com/542181842902e7757781eef5/640x640_dd6ad80d-65ee-4770-8772-5de3f611cb55.jpg",
              "height": 640,
              "width": 640
            },
            {
              "url": "http://images.gotinder.com/542181842902e7757781eef5/320x320_dd6ad80d-65ee-4770-8772-5de3f611cb55.jpg",
              "height": 320,
              "width": 320
            },
            {
              "url": "http://images.gotinder.com/542181842902e7757781eef5/172x172_dd6ad80d-65ee-4770-8772-5de3f611cb55.jpg",
              "height": 172,
              "width": 172
            },
            {
              "url": "http://images.gotinder.com/542181842902e7757781eef5/84x84_dd6ad80d-65ee-4770-8772-5de3f611cb55.jpg",
              "height": 84,
              "width": 84
            }
          ],
          "fileName": "dd6ad80d-65ee-4770-8772-5de3f611cb55.jpg",
          "extension": "jpg"
        }
      ],
      "instagram": {
        "last_fetch_time": "2017-12-16T18:02:08.622Z",
        "completed_initial_fetch": true,
        "photos": [
          {
            "image": "https://scontent.cdninstagram.com/t51.2885-15/e35/20633463_108418273173312_3928553624409473024_n.jpg",
            "thumbnail": "https://scontent.cdninstagram.com/t51.2885-15/s150x150/e35/20633463_108418273173312_3928553624409473024_n.jpg",
            "ts": "1501950516",
            "link": "https://www.instagram.com/p/BXazgHgA6XJDeVubz8vI2VGblaiNZfLRjdKR6Y0/"
          },
          {
            "image": "https://scontent.cdninstagram.com/t51.2885-15/sh0.08/e35/p640x640/18879054_224334551391351_883078531989372928_n.jpg",
            "thumbnail": "https://scontent.cdninstagram.com/t51.2885-15/s150x150/e35/c0.126.1080.1080/18879054_224334551391351_883078531989372928_n.jpg",
            "ts": "1496639281",
            "link": "https://www.instagram.com/p/BU8hH_vg2L3WJInv4rZVr88nVJk1T2anWORefY0/"
          },
          {
            "image": "https://scontent.cdninstagram.com/t51.2885-15/s640x640/sh0.08/e35/18645737_1882215508694833_141719433843310592_n.jpg",
            "thumbnail": "https://scontent.cdninstagram.com/t51.2885-15/s150x150/e35/c193.0.693.693/18645737_1882215508694833_141719433843310592_n.jpg",
            "ts": "1495934339",
            "link": "https://www.instagram.com/p/BUngjjbg7N_meiNKyUoabaPLe9iH0nwzOcPgyY0/"
          },
          {
            "image": "https://scontent.cdninstagram.com/t51.2885-15/s640x640/sh0.08/e35/18382317_545792935545156_912179585414594560_n.jpg",
            "thumbnail": "https://scontent.cdninstagram.com/t51.2885-15/s150x150/e35/18382317_545792935545156_912179585414594560_n.jpg",
            "ts": "1494813743",
            "link": "https://www.instagram.com/p/BUGHMBuATUdyOQjK7Cq2malMmP6hXk7ZRMZ4BU0/"
          },
          {
            "image": "https://scontent.cdninstagram.com/t51.2885-15/sh0.08/e35/p640x640/17662933_1837265386498283_114515596321751040_n.jpg",
            "thumbnail": "https://scontent.cdninstagram.com/t51.2885-15/s150x150/e35/c0.135.1080.1080/17662933_1837265386498283_114515596321751040_n.jpg",
            "ts": "1491343712",
            "link": "https://www.instagram.com/p/BSesoP7AUpKHbF9xmq-g7pwRUAlFGL4hWGTbRs0/"
          },
          {
            "image": "https://scontent.cdninstagram.com/t51.2885-15/sh0.08/e35/p640x640/17662708_685577088316449_4335251172953686016_n.jpg",
            "thumbnail": "https://scontent.cdninstagram.com/t51.2885-15/s150x150/e35/c0.135.1080.1080/17662708_685577088316449_4335251172953686016_n.jpg",
            "ts": "1491175354",
            "link": "https://www.instagram.com/p/BSZrgy2AWBYlz0RppOzKXUni-gRSOfDX9meHYg0/"
          },
          {
            "image": "https://scontent.cdninstagram.com/t51.2885-15/sh0.08/e35/p640x640/17587301_1364032316973729_3426254536262549504_n.jpg",
            "thumbnail": "https://scontent.cdninstagram.com/t51.2885-15/s150x150/e35/c0.123.984.984/17587301_1364032316973729_3426254536262549504_n.jpg",
            "ts": "1490882714",
            "link": "https://www.instagram.com/p/BSQ9WHEgOZb0QU26LAQqE7TPq9bcxNbNN-djEA0/"
          },
          {
            "image": "https://scontent.cdninstagram.com/t51.2885-15/s640x640/sh0.08/e35/17268104_1642325729117125_8487079376620355584_n.jpg",
            "thumbnail": "https://scontent.cdninstagram.com/t51.2885-15/s150x150/e35/c135.0.810.810/17268104_1642325729117125_8487079376620355584_n.jpg",
            "ts": "1489357935",
            "link": "https://www.instagram.com/p/BRjhD49g8_CLQMFjDuj4ibNl_GWFoHWH4AfomU0/"
          },
          {
            "image": "https://scontent.cdninstagram.com/t51.2885-15/e35/17126231_1386351551426742_2207039975218741248_n.jpg",
            "thumbnail": "https://scontent.cdninstagram.com/t51.2885-15/s150x150/e35/c0.69.549.549/17126231_1386351551426742_2207039975218741248_n.jpg",
            "ts": "1489093265",
            "link": "https://www.instagram.com/p/BRboPf9gz5tdz6yn7y7F4SKvqBTFsMr0BMfIc00/"
          },
          {
            "image": "https://scontent.cdninstagram.com/t51.2885-15/sh0.08/e35/p640x640/17075977_208859569595464_3250181931056234496_n.jpg",
            "thumbnail": "https://scontent.cdninstagram.com/t51.2885-15/s150x150/e35/c0.135.1080.1080/17075977_208859569595464_3250181931056234496_n.jpg",
            "ts": "1488691642",
            "link": "https://www.instagram.com/p/BRPqNUKgOYEKn_Fltxmm4iLuKhHYw1nTnS5aeE0/"
          },
          {
            "image": "https://scontent.cdninstagram.com/t51.2885-15/s640x640/sh0.08/e35/17077515_724382937742554_9057807700498317312_n.jpg",
            "thumbnail": "https://scontent.cdninstagram.com/t51.2885-15/s150x150/e35/c77.0.876.876/17077515_724382937742554_9057807700498317312_n.jpg",
            "ts": "1488489628",
            "link": "https://www.instagram.com/p/BRJo5WiAilzRTa-LKOwYbitCn9FNzBvGiVzpS40/"
          },
          {
            "image": "https://scontent.cdninstagram.com/t51.2885-15/s640x640/sh0.08/e35/16908926_1372130969511795_5048252152527454208_n.jpg",
            "thumbnail": "https://scontent.cdninstagram.com/t51.2885-15/s150x150/e35/c113.0.811.811/16908926_1372130969511795_5048252152527454208_n.jpg",
            "ts": "1488292049",
            "link": "https://www.instagram.com/p/BRDwC32gQfpMsVeePf1tCv1_hijP4bRQZuJ_wY0/"
          },
          {
            "image": "https://scontent.cdninstagram.com/t51.2885-15/s640x640/sh0.08/e35/16908513_1389993797739756_4952207432429338624_n.jpg",
            "thumbnail": "https://scontent.cdninstagram.com/t51.2885-15/s150x150/e35/c135.0.810.810/16908513_1389993797739756_4952207432429338624_n.jpg",
            "ts": "1488247101",
            "link": "https://www.instagram.com/p/BRCaUAkgk8kgYU1nCPBIOBxN2wkExRflBjY10A0/"
          },
          {
            "image": "https://scontent.cdninstagram.com/t51.2885-15/sh0.08/e35/p640x640/16583392_1768254300168581_7383308451251748864_n.jpg",
            "thumbnail": "https://scontent.cdninstagram.com/t51.2885-15/s150x150/e35/c0.135.1080.1080/16583392_1768254300168581_7383308451251748864_n.jpg",
            "ts": "1487038920",
            "link": "https://www.instagram.com/p/BQeZ48kgjlLBqbrosPuLL8XoSK5pDe68Wlv0Fw0/"
          },
          {
            "image": "https://scontent.cdninstagram.com/t51.2885-15/s640x640/sh0.08/e35/16465378_1413033795434130_8353505721916063744_n.jpg",
            "thumbnail": "https://scontent.cdninstagram.com/t51.2885-15/s150x150/e35/c135.0.810.810/16465378_1413033795434130_8353505721916063744_n.jpg",
            "ts": "1486175862",
            "link": "https://www.instagram.com/p/BQErvM8gV2vEU03_yBgL7cB-sfChNuDqKxlCJk0/"
          },
          {
            "image": "https://scontent.cdninstagram.com/t51.2885-15/sh0.08/e35/p640x640/16122674_1211940752215386_253272628012253184_n.jpg",
            "thumbnail": "https://scontent.cdninstagram.com/t51.2885-15/s150x150/e35/c0.44.1080.1080/16122674_1211940752215386_253272628012253184_n.jpg",
            "ts": "1484789661",
            "link": "https://www.instagram.com/p/BPbXxOIgAfJR5OQEPoQBeWdl6Xc3fRCwmKclfU0/"
          },
          {
            "image": "https://scontent.cdninstagram.com/t51.2885-15/sh0.08/e35/p640x640/15624438_616686381873539_7967608919029710848_n.jpg",
            "thumbnail": "https://scontent.cdninstagram.com/t51.2885-15/s150x150/e35/c0.86.692.692/15624438_616686381873539_7967608919029710848_n.jpg",
            "ts": "1482868737",
            "link": "https://www.instagram.com/p/BOiH5bQgB3aG0v3OVOiBU3069mJWwLPakVjNXM0/"
          },
          {
            "image": "https://scontent.cdninstagram.com/t51.2885-15/s640x640/sh0.08/e35/15624081_1089843744475457_9121204127911641088_n.jpg",
            "thumbnail": "https://scontent.cdninstagram.com/t51.2885-15/s150x150/e35/c117.0.703.703/15624081_1089843744475457_9121204127911641088_n.jpg",
            "ts": "1482624471",
            "link": "https://www.instagram.com/p/BOa1_08gOB6n0QWqoHkCMv66LZ3_NXa84q12mQ0/"
          },
          {
            "image": "https://scontent.cdninstagram.com/t51.2885-15/s640x640/sh0.08/e35/15535056_204954366632456_34665948061368320_n.jpg",
            "thumbnail": "https://scontent.cdninstagram.com/t51.2885-15/s150x150/e35/15535056_204954366632456_34665948061368320_n.jpg",
            "ts": "1482103521",
            "link": "https://www.instagram.com/p/BOLUXUgAvnq_d60arFXNKfGz7lUth7PhMOZ2kQ0/"
          },
          {
            "image": "https://scontent.cdninstagram.com/t51.2885-15/sh0.08/e35/p640x640/15276509_557966354413789_2876913023509856256_n.jpg",
            "thumbnail": "https://scontent.cdninstagram.com/t51.2885-15/s150x150/e35/c0.40.1080.1080/15276509_557966354413789_2876913023509856256_n.jpg",
            "ts": "1481516799",
            "link": "https://www.instagram.com/p/BN51R6xgxj_ukfxukeGbD68LVz6WIGmR247Q-o0/"
          },
          {
            "image": "https://scontent.cdninstagram.com/t51.2885-15/s640x640/sh0.08/e35/14566587_1267728929939547_628907448358404096_n.jpg",
            "thumbnail": "https://scontent.cdninstagram.com/t51.2885-15/s150x150/e35/14566587_1267728929939547_628907448358404096_n.jpg",
            "ts": "1481509084",
            "link": "https://www.instagram.com/p/BN5mkOIAgxPRXj8OmRAmU3oEZVxbp4cBnO1nBE0/"
          },
          {
            "image": "https://scontent.cdninstagram.com/t51.2885-15/sh0.08/e35/p640x640/15306645_225314141213479_9136855044572839936_n.jpg",
            "thumbnail": "https://scontent.cdninstagram.com/t51.2885-15/s150x150/e35/c0.135.1080.1080/15306645_225314141213479_9136855044572839936_n.jpg",
            "ts": "1481255968",
            "link": "https://www.instagram.com/p/BNyDyORAK2HSe9YF6E-7e2VUjjSQpoonVK7vRA0/"
          },
          {
            "image": "https://scontent.cdninstagram.com/t51.2885-15/s640x640/sh0.08/e35/14582323_1305813199483353_1513874662151421952_n.jpg",
            "thumbnail": "https://scontent.cdninstagram.com/t51.2885-15/s150x150/e35/c228.0.588.588/14582323_1305813199483353_1513874662151421952_n.jpg",
            "ts": "1480995053",
            "link": "https://www.instagram.com/p/BNqSIN3AgA1QV_YFr9WH5WEaHHxl2w-nnisfjs0/"
          },
          {
            "image": "https://scontent.cdninstagram.com/t51.2885-15/s640x640/sh0.08/e35/15259131_169046630234517_1760138607911239680_n.jpg",
            "thumbnail": "https://scontent.cdninstagram.com/t51.2885-15/s150x150/e35/c155.0.770.770/15259131_169046630234517_1760138607911239680_n.jpg",
            "ts": "1480964651",
            "link": "https://www.instagram.com/p/BNpYJBYA_erEBNdFX-XJN5rf-TOZFrOQtzYjqM0/"
          },
          {
            "image": "https://scontent.cdninstagram.com/t51.2885-15/sh0.08/e35/p640x640/15258908_1293683394007123_6264809554744180736_n.jpg",
            "thumbnail": "https://scontent.cdninstagram.com/t51.2885-15/s150x150/e35/c0.9.1080.1080/15258908_1293683394007123_6264809554744180736_n.jpg",
            "ts": "1480210193",
            "link": "https://www.instagram.com/p/BNS5IM3AD0Stl6JN8hfxSQHl4R9N7NedV4Wz5o0/"
          },
          {
            "image": "https://scontent.cdninstagram.com/t51.2885-15/s640x640/sh0.08/e35/14515711_920305561404107_5012184851126681600_n.jpg",
            "thumbnail": "https://scontent.cdninstagram.com/t51.2885-15/s150x150/e35/14515711_920305561404107_5012184851126681600_n.jpg",
            "ts": "1479667707",
            "link": "https://www.instagram.com/p/BNCuaqrASGaQCZ4-TB6JrWWfO7zDOvY_36NBFw0/"
          },
          {
            "image": "https://scontent.cdninstagram.com/t51.2885-15/s640x640/sh0.08/e35/15034934_1123241321046080_4282562141958963200_n.jpg",
            "thumbnail": "https://scontent.cdninstagram.com/t51.2885-15/s150x150/e35/15034934_1123241321046080_4282562141958963200_n.jpg",
            "ts": "1479414935",
            "link": "https://www.instagram.com/p/BM7MSzsAD0lZDrZ7No-uAI74nRx3s5_1imFKPk0/"
          },
          {
            "image": "https://scontent.cdninstagram.com/t51.2885-15/sh0.08/e35/p640x640/14607171_1852217361678394_1142822163888209920_n.jpg",
            "thumbnail": "https://scontent.cdninstagram.com/t51.2885-15/s150x150/e35/c0.90.720.720/14607171_1852217361678394_1142822163888209920_n.jpg",
            "ts": "1479317096",
            "link": "https://www.instagram.com/p/BM4Rrj8ArAwAObBCC9tdIjpsrmfjxHDo7jrrlc0/"
          },
          {
            "image": "https://scontent.cdninstagram.com/t51.2885-15/s640x640/sh0.08/e35/15048067_1227126404011572_573436270693318656_n.jpg",
            "thumbnail": "https://scontent.cdninstagram.com/t51.2885-15/s150x150/e35/c0.0.802.802/15048067_1227126404011572_573436270693318656_n.jpg",
            "ts": "1479085495",
            "link": "https://www.instagram.com/p/BMxX76wgpCEP17tZ1tkCZFkPefSsRbzdeNrw-k0/"
          },
          {
            "image": "https://scontent.cdninstagram.com/t51.2885-15/sh0.08/e35/p640x640/15056545_705404462958979_3438243344763846656_n.jpg",
            "thumbnail": "https://scontent.cdninstagram.com/t51.2885-15/s150x150/e35/c0.102.1080.1080/15056545_705404462958979_3438243344763846656_n.jpg",
            "ts": "1478890757",
            "link": "https://www.instagram.com/p/BMrkgNDgQ6ULXt1z8S-fAYbNudyRJwZiVgD6-Q0/"
          }
        ],
        "media_count": 148,
        "profile_picture": "https://scontent.cdninstagram.com/t51.2885-19/s150x150/21227225_159178731326311_5284731256548884480_a.jpg",
        "username": "dianacordova21"
      },
      "jobs": [],
      "schools": [],
      "teaser": {
        "string": ""
      },
      "teasers": [
        {
          "type": "instagram",
          "string": "148 Instagram Photos"
        }
      ],
      "gender": 1,
      "birth_date_info": "fuzzy birthdate active, not displaying real birth_date",
      "s_number": 82664908
    },
    {
      "group_matched": false,
      "distance_mi": 4,
      "content_hash": "z4hEPcq2sw1ibZUlwIoQslsdoTXETEYS5PsQkCjvCkASYP",
      "common_friends": [],
      "common_likes": [],
      "common_friend_count": 0,
      "common_like_count": 0,
      "connection_count": 0,
      "_id": "57eb01e5b6eb000038d824ec",
      "bio": "Ripen please 🙏. Oh no wait 😱😱!!! That should be me. \nSnapchat : gfem1809\n",
      "birth_date": "1997-01-12T01:50:13.635Z",
      "name": "Fiorella",
      "ping_time": "2014-12-09T00:00:00.000Z",
      "photos": [
        {
          "id": "0e35c99c-a772-481e-9d3f-9a4258b33d55",
          "url": "http://images.gotinder.com/57eb01e5b6eb000038d824ec/0e35c99c-a772-481e-9d3f-9a4258b33d55.jpg",
          "processedFiles": [
            {
              "url": "http://images.gotinder.com/57eb01e5b6eb000038d824ec/640x640_0e35c99c-a772-481e-9d3f-9a4258b33d55.jpg",
              "height": 640,
              "width": 640
            },
            {
              "url": "http://images.gotinder.com/57eb01e5b6eb000038d824ec/320x320_0e35c99c-a772-481e-9d3f-9a4258b33d55.jpg",
              "height": 320,
              "width": 320
            },
            {
              "url": "http://images.gotinder.com/57eb01e5b6eb000038d824ec/172x172_0e35c99c-a772-481e-9d3f-9a4258b33d55.jpg",
              "height": 172,
              "width": 172
            },
            {
              "url": "http://images.gotinder.com/57eb01e5b6eb000038d824ec/84x84_0e35c99c-a772-481e-9d3f-9a4258b33d55.jpg",
              "height": 84,
              "width": 84
            }
          ],
          "fileName": "0e35c99c-a772-481e-9d3f-9a4258b33d55.jpg",
          "extension": "jpg"
        },
        {
          "id": "ce616edb-9410-4ff1-8703-8e3bfc20cb46",
          "url": "http://images.gotinder.com/57eb01e5b6eb000038d824ec/ce616edb-9410-4ff1-8703-8e3bfc20cb46.jpg",
          "processedFiles": [
            {
              "url": "http://images.gotinder.com/57eb01e5b6eb000038d824ec/640x640_ce616edb-9410-4ff1-8703-8e3bfc20cb46.jpg",
              "height": 640,
              "width": 640
            },
            {
              "url": "http://images.gotinder.com/57eb01e5b6eb000038d824ec/320x320_ce616edb-9410-4ff1-8703-8e3bfc20cb46.jpg",
              "height": 320,
              "width": 320
            },
            {
              "url": "http://images.gotinder.com/57eb01e5b6eb000038d824ec/172x172_ce616edb-9410-4ff1-8703-8e3bfc20cb46.jpg",
              "height": 172,
              "width": 172
            },
            {
              "url": "http://images.gotinder.com/57eb01e5b6eb000038d824ec/84x84_ce616edb-9410-4ff1-8703-8e3bfc20cb46.jpg",
              "height": 84,
              "width": 84
            }
          ],
          "fileName": "ce616edb-9410-4ff1-8703-8e3bfc20cb46.jpg",
          "extension": "jpg"
        },
        {
          "id": "957d21df-7dc0-4c27-8fad-d78b662de533",
          "url": "http://images.gotinder.com/57eb01e5b6eb000038d824ec/1080x1080_957d21df-7dc0-4c27-8fad-d78b662de533.jpg",
          "processedFiles": [
            {
              "url": "http://images.gotinder.com/57eb01e5b6eb000038d824ec/640x640_957d21df-7dc0-4c27-8fad-d78b662de533.jpg",
              "height": 640,
              "width": 640
            },
            {
              "url": "http://images.gotinder.com/57eb01e5b6eb000038d824ec/320x320_957d21df-7dc0-4c27-8fad-d78b662de533.jpg",
              "height": 320,
              "width": 320
            },
            {
              "url": "http://images.gotinder.com/57eb01e5b6eb000038d824ec/172x172_957d21df-7dc0-4c27-8fad-d78b662de533.jpg",
              "height": 172,
              "width": 172
            },
            {
              "url": "http://images.gotinder.com/57eb01e5b6eb000038d824ec/84x84_957d21df-7dc0-4c27-8fad-d78b662de533.jpg",
              "height": 84,
              "width": 84
            }
          ],
          "fileName": "957d21df-7dc0-4c27-8fad-d78b662de533.jpg",
          "extension": "jpg"
        },
        {
          "id": "0bee10b1-0014-4513-b990-9554b11badee",
          "url": "http://images.gotinder.com/57eb01e5b6eb000038d824ec/1080x1080_0bee10b1-0014-4513-b990-9554b11badee.jpg",
          "processedFiles": [
            {
              "url": "http://images.gotinder.com/57eb01e5b6eb000038d824ec/640x640_0bee10b1-0014-4513-b990-9554b11badee.jpg",
              "height": 640,
              "width": 640
            },
            {
              "url": "http://images.gotinder.com/57eb01e5b6eb000038d824ec/320x320_0bee10b1-0014-4513-b990-9554b11badee.jpg",
              "height": 320,
              "width": 320
            },
            {
              "url": "http://images.gotinder.com/57eb01e5b6eb000038d824ec/172x172_0bee10b1-0014-4513-b990-9554b11badee.jpg",
              "height": 172,
              "width": 172
            },
            {
              "url": "http://images.gotinder.com/57eb01e5b6eb000038d824ec/84x84_0bee10b1-0014-4513-b990-9554b11badee.jpg",
              "height": 84,
              "width": 84
            }
          ],
          "fileName": "0bee10b1-0014-4513-b990-9554b11badee.jpg",
          "extension": "jpg"
        },
        {
          "id": "fc63d094-6908-4a51-ad37-0f5912eff4c2",
          "url": "http://images.gotinder.com/57eb01e5b6eb000038d824ec/fc63d094-6908-4a51-ad37-0f5912eff4c2.jpg",
          "processedFiles": [
            {
              "url": "http://images.gotinder.com/57eb01e5b6eb000038d824ec/640x640_fc63d094-6908-4a51-ad37-0f5912eff4c2.jpg",
              "height": 640,
              "width": 640
            },
            {
              "url": "http://images.gotinder.com/57eb01e5b6eb000038d824ec/320x320_fc63d094-6908-4a51-ad37-0f5912eff4c2.jpg",
              "height": 320,
              "width": 320
            },
            {
              "url": "http://images.gotinder.com/57eb01e5b6eb000038d824ec/172x172_fc63d094-6908-4a51-ad37-0f5912eff4c2.jpg",
              "height": 172,
              "width": 172
            },
            {
              "url": "http://images.gotinder.com/57eb01e5b6eb000038d824ec/84x84_fc63d094-6908-4a51-ad37-0f5912eff4c2.jpg",
              "height": 84,
              "width": 84
            }
          ],
          "fileName": "fc63d094-6908-4a51-ad37-0f5912eff4c2.jpg",
          "extension": "jpg"
        },
        {
          "id": "7f693e03-b7f7-483b-9788-c80a13ef61a1",
          "url": "http://images.gotinder.com/57eb01e5b6eb000038d824ec/1080x1080_7f693e03-b7f7-483b-9788-c80a13ef61a1.jpg",
          "processedFiles": [
            {
              "url": "http://images.gotinder.com/57eb01e5b6eb000038d824ec/640x640_7f693e03-b7f7-483b-9788-c80a13ef61a1.jpg",
              "height": 640,
              "width": 640
            },
            {
              "url": "http://images.gotinder.com/57eb01e5b6eb000038d824ec/320x320_7f693e03-b7f7-483b-9788-c80a13ef61a1.jpg",
              "height": 320,
              "width": 320
            },
            {
              "url": "http://images.gotinder.com/57eb01e5b6eb000038d824ec/172x172_7f693e03-b7f7-483b-9788-c80a13ef61a1.jpg",
              "height": 172,
              "width": 172
            },
            {
              "url": "http://images.gotinder.com/57eb01e5b6eb000038d824ec/84x84_7f693e03-b7f7-483b-9788-c80a13ef61a1.jpg",
              "height": 84,
              "width": 84
            }
          ],
          "fileName": "7f693e03-b7f7-483b-9788-c80a13ef61a1.jpg",
          "extension": "jpg"
        }
      ],
      "jobs": [],
      "schools": [
        {
          "id": "161812906287",
          "name": "Universidad Católica San Pablo"
        }
      ],
      "teaser": {
        "type": "school",
        "string": "Universidad Católica San Pablo"
      },
      "teasers": [
        {
          "type": "school",
          "string": "Universidad Católica San Pablo"
        }
      ],
      "gender": 1,
      "birth_date_info": "fuzzy birthdate active, not displaying real birth_date",
      "s_number": 255742158,
      "spotify_theme_track": {
        "id": "6ZapsNk1ZpaebNXAIohP9R",
        "name": "Home",
        "preview_url": "https://p.scdn.co/mp3-preview/8e1ff07117c78984d221597a80148e80eae6e146",
        "uri": "spotify:track:6ZapsNk1ZpaebNXAIohP9R",
        "album": {
          "id": "4EBtalKeisyblXwox9mMXf",
          "name": "Up From Below",
          "images": [
            {
              "height": 640,
              "width": 640,
              "url": "https://i.scdn.co/image/8cf441e9ba44df92f902ce23143d6f7fc7e2986e"
            },
            {
              "height": 300,
              "width": 300,
              "url": "https://i.scdn.co/image/61c197a3231fcc2c9ba9613f31ff5bb990935f68"
            },
            {
              "height": 64,
              "width": 64,
              "url": "https://i.scdn.co/image/29094fea9be7450918e47f48b9fcc7d923b6a853"
            }
          ]
        },
        "artists": [
          {
            "id": "7giUHu5pv6YTZgSkxxCcgh",
            "name": "Edward Sharpe & The Magnetic Zeros"
          }
        ]
      }
    },
    {
      "group_matched": false,
      "distance_mi": 4,
      "content_hash": "YM5ujIzYHnjSZJUp8fmrImMIANcEGs2ZsQ9U3ZtQAsQXhn",
      "common_friends": [],
      "common_likes": [],
      "common_friend_count": 0,
      "common_like_count": 0,
      "connection_count": 0,
      "_id": "5a15c00fb90c018263ebddf7",
      "bio": "",
      "birth_date": "1999-01-12T01:50:13.635Z",
      "name": "Grecia",
      "ping_time": "2014-12-09T00:00:00.000Z",
      "photos": [
        {
          "id": "420f40ae-ad9d-47d7-abba-6865a73ab304",
          "url": "http://images.gotinder.com/5a15c00fb90c018263ebddf7/1080x1080_420f40ae-ad9d-47d7-abba-6865a73ab304.jpg",
          "processedFiles": [
            {
              "url": "http://images.gotinder.com/5a15c00fb90c018263ebddf7/640x640_420f40ae-ad9d-47d7-abba-6865a73ab304.jpg",
              "height": 640,
              "width": 640
            },
            {
              "url": "http://images.gotinder.com/5a15c00fb90c018263ebddf7/320x320_420f40ae-ad9d-47d7-abba-6865a73ab304.jpg",
              "height": 320,
              "width": 320
            },
            {
              "url": "http://images.gotinder.com/5a15c00fb90c018263ebddf7/172x172_420f40ae-ad9d-47d7-abba-6865a73ab304.jpg",
              "height": 172,
              "width": 172
            },
            {
              "url": "http://images.gotinder.com/5a15c00fb90c018263ebddf7/84x84_420f40ae-ad9d-47d7-abba-6865a73ab304.jpg",
              "height": 84,
              "width": 84
            }
          ],
          "fileName": "420f40ae-ad9d-47d7-abba-6865a73ab304.jpg",
          "extension": "jpg"
        }
      ],
      "jobs": [],
      "schools": [],
      "teaser": {
        "string": ""
      },
      "teasers": [],
      "gender": 1,
      "birth_date_info": "fuzzy birthdate active, not displaying real birth_date",
      "s_number": 451181742,
      "spotify_theme_track": {
        "id": "0tKcYR2II1VCQWT79i5NrW",
        "name": "Thunder",
        "uri": "spotify:track:0tKcYR2II1VCQWT79i5NrW",
        "album": {
          "id": "5GlPAy2PRJW06GVFhKwGTl",
          "name": "Evolve",
          "images": [
            {
              "height": 640,
              "width": 640,
              "url": "https://i.scdn.co/image/d437791a5159ac23270b8850c307c7da98e246cb"
            },
            {
              "height": 300,
              "width": 300,
              "url": "https://i.scdn.co/image/37ffb5905818e873b3b7905274669b8a5d277810"
            },
            {
              "height": 64,
              "width": 64,
              "url": "https://i.scdn.co/image/096783d26410f20192b7ee11ee85c2bb26fa70ed"
            }
          ]
        },
        "artists": [
          {
            "id": "53XhwfbYqKCa1cC15pYq2q",
            "name": "Imagine Dragons"
          }
        ]
      }
    },
    {
      "group_matched": false,
      "distance_mi": 5,
      "content_hash": "x7wi3lTgoClJI8ktXf9luv9ce1hZ4TPat74Tv6u1OCRFAY",
      "common_friends": [],
      "common_likes": [],
      "common_friend_count": 0,
      "common_like_count": 0,
      "connection_count": 0,
      "_id": "565b1f6dc32e14f605304a03",
      "bio": "",
      "birth_date": "1995-01-12T01:50:13.635Z",
      "name": "Paola",
      "ping_time": "2014-12-09T00:00:00.000Z",
      "photos": [
        {
          "id": "3065d663-cf1a-49f8-894d-4599d2da1fa5",
          "url": "http://images.gotinder.com/565b1f6dc32e14f605304a03/1080x1080_3065d663-cf1a-49f8-894d-4599d2da1fa5.jpg",
          "processedFiles": [
            {
              "url": "http://images.gotinder.com/565b1f6dc32e14f605304a03/640x640_3065d663-cf1a-49f8-894d-4599d2da1fa5.jpg",
              "height": 640,
              "width": 640
            },
            {
              "url": "http://images.gotinder.com/565b1f6dc32e14f605304a03/320x320_3065d663-cf1a-49f8-894d-4599d2da1fa5.jpg",
              "height": 320,
              "width": 320
            },
            {
              "url": "http://images.gotinder.com/565b1f6dc32e14f605304a03/172x172_3065d663-cf1a-49f8-894d-4599d2da1fa5.jpg",
              "height": 172,
              "width": 172
            },
            {
              "url": "http://images.gotinder.com/565b1f6dc32e14f605304a03/84x84_3065d663-cf1a-49f8-894d-4599d2da1fa5.jpg",
              "height": 84,
              "width": 84
            }
          ],
          "fileName": "3065d663-cf1a-49f8-894d-4599d2da1fa5.jpg",
          "extension": "jpg"
        },
        {
          "id": "54c8fb1c-066e-4909-8bc8-7ede74415c01",
          "url": "http://images.gotinder.com/565b1f6dc32e14f605304a03/1080x1080_54c8fb1c-066e-4909-8bc8-7ede74415c01.jpg",
          "processedFiles": [
            {
              "url": "http://images.gotinder.com/565b1f6dc32e14f605304a03/640x640_54c8fb1c-066e-4909-8bc8-7ede74415c01.jpg",
              "height": 640,
              "width": 640
            },
            {
              "url": "http://images.gotinder.com/565b1f6dc32e14f605304a03/320x320_54c8fb1c-066e-4909-8bc8-7ede74415c01.jpg",
              "height": 320,
              "width": 320
            },
            {
              "url": "http://images.gotinder.com/565b1f6dc32e14f605304a03/172x172_54c8fb1c-066e-4909-8bc8-7ede74415c01.jpg",
              "height": 172,
              "width": 172
            },
            {
              "url": "http://images.gotinder.com/565b1f6dc32e14f605304a03/84x84_54c8fb1c-066e-4909-8bc8-7ede74415c01.jpg",
              "height": 84,
              "width": 84
            }
          ],
          "fileName": "54c8fb1c-066e-4909-8bc8-7ede74415c01.jpg",
          "extension": "jpg"
        },
        {
          "id": "618a647c-ed3d-4d0c-888a-860ba41e3e73",
          "url": "http://images.gotinder.com/565b1f6dc32e14f605304a03/1080x1080_618a647c-ed3d-4d0c-888a-860ba41e3e73.jpg",
          "processedFiles": [
            {
              "url": "http://images.gotinder.com/565b1f6dc32e14f605304a03/640x640_618a647c-ed3d-4d0c-888a-860ba41e3e73.jpg",
              "height": 640,
              "width": 640
            },
            {
              "url": "http://images.gotinder.com/565b1f6dc32e14f605304a03/320x320_618a647c-ed3d-4d0c-888a-860ba41e3e73.jpg",
              "height": 320,
              "width": 320
            },
            {
              "url": "http://images.gotinder.com/565b1f6dc32e14f605304a03/172x172_618a647c-ed3d-4d0c-888a-860ba41e3e73.jpg",
              "height": 172,
              "width": 172
            },
            {
              "url": "http://images.gotinder.com/565b1f6dc32e14f605304a03/84x84_618a647c-ed3d-4d0c-888a-860ba41e3e73.jpg",
              "height": 84,
              "width": 84
            }
          ],
          "fileName": "618a647c-ed3d-4d0c-888a-860ba41e3e73.jpg",
          "extension": "jpg"
        },
        {
          "id": "f4f0841b-fbae-4f2e-84a8-db69bacf7477",
          "url": "http://images.gotinder.com/565b1f6dc32e14f605304a03/f4f0841b-fbae-4f2e-84a8-db69bacf7477.jpg",
          "processedFiles": [
            {
              "url": "http://images.gotinder.com/565b1f6dc32e14f605304a03/640x640_f4f0841b-fbae-4f2e-84a8-db69bacf7477.jpg",
              "height": 640,
              "width": 640
            },
            {
              "url": "http://images.gotinder.com/565b1f6dc32e14f605304a03/320x320_f4f0841b-fbae-4f2e-84a8-db69bacf7477.jpg",
              "height": 320,
              "width": 320
            },
            {
              "url": "http://images.gotinder.com/565b1f6dc32e14f605304a03/172x172_f4f0841b-fbae-4f2e-84a8-db69bacf7477.jpg",
              "height": 172,
              "width": 172
            },
            {
              "url": "http://images.gotinder.com/565b1f6dc32e14f605304a03/84x84_f4f0841b-fbae-4f2e-84a8-db69bacf7477.jpg",
              "height": 84,
              "width": 84
            }
          ],
          "fileName": "f4f0841b-fbae-4f2e-84a8-db69bacf7477.jpg",
          "extension": "jpg"
        }
      ],
      "jobs": [],
      "schools": [],
      "teaser": {
        "string": ""
      },
      "teasers": [],
      "gender": 1,
      "birth_date_info": "fuzzy birthdate active, not displaying real birth_date",
      "s_number": 183999996
    },
    {
      "group_matched": false,
      "distance_mi": 2,
      "content_hash": "xODt2LFgaIEiMcjxi9QU2feDCaofj4H7wIvwCxkhGZu4g",
      "common_friends": [],
      "common_likes": [],
      "common_friend_count": 0,
      "common_like_count": 0,
      "connection_count": 0,
      "_id": "56a703d87cc3c24254310dfe",
      "bio": "Hola! Me gusta leer, viajar , caminar en el campo o en el mar salir de lo habitual y no llevar una rutina me interesa hacer amistad :) ",
      "birth_date": "1985-01-12T01:50:13.635Z",
      "name": "Fio",
      "ping_time": "2014-12-09T00:00:00.000Z",
      "photos": [
        {
          "id": "7844b006-0bf2-480c-9bca-c285cce7def6",
          "url": "http://images.gotinder.com/56a703d87cc3c24254310dfe/1080x1080_7844b006-0bf2-480c-9bca-c285cce7def6.jpg",
          "processedFiles": [
            {
              "url": "http://images.gotinder.com/56a703d87cc3c24254310dfe/640x640_7844b006-0bf2-480c-9bca-c285cce7def6.jpg",
              "height": 640,
              "width": 640
            },
            {
              "url": "http://images.gotinder.com/56a703d87cc3c24254310dfe/320x320_7844b006-0bf2-480c-9bca-c285cce7def6.jpg",
              "height": 320,
              "width": 320
            },
            {
              "url": "http://images.gotinder.com/56a703d87cc3c24254310dfe/172x172_7844b006-0bf2-480c-9bca-c285cce7def6.jpg",
              "height": 172,
              "width": 172
            },
            {
              "url": "http://images.gotinder.com/56a703d87cc3c24254310dfe/84x84_7844b006-0bf2-480c-9bca-c285cce7def6.jpg",
              "height": 84,
              "width": 84
            }
          ],
          "fileName": "7844b006-0bf2-480c-9bca-c285cce7def6.jpg",
          "extension": "jpg"
        }
      ],
      "jobs": [],
      "schools": [],
      "teaser": {
        "string": ""
      },
      "teasers": [],
      "gender": 1,
      "birth_date_info": "fuzzy birthdate active, not displaying real birth_date",
      "s_number": 198660337
    },
    {
      "group_matched": false,
      "distance_mi": 17,
      "content_hash": "P5fDGHLwcLOHrrFE7faRUAh22izOfZbTjaum2c8XU9ws3a",
      "common_friends": [],
      "common_likes": [],
      "common_friend_count": 0,
      "common_like_count": 0,
      "connection_count": 0,
      "_id": "58522c89b0b6548d2c478b82",
      "bio": "Vive la vida y no dejes que la vida te viva😊😊😆😆😅☺☺😄",
      "birth_date": "1994-01-12T01:50:13.635Z",
      "name": "Jackely",
      "ping_time": "2014-12-09T00:00:00.000Z",
      "photos": [
        {
          "id": "0caea781-2dea-4100-b4ab-cf506dcb2cb3",
          "url": "http://images.gotinder.com/58522c89b0b6548d2c478b82/0caea781-2dea-4100-b4ab-cf506dcb2cb3.jpg",
          "processedFiles": [
            {
              "url": "http://images.gotinder.com/58522c89b0b6548d2c478b82/640x640_0caea781-2dea-4100-b4ab-cf506dcb2cb3.jpg",
              "height": 640,
              "width": 640
            },
            {
              "url": "http://images.gotinder.com/58522c89b0b6548d2c478b82/320x320_0caea781-2dea-4100-b4ab-cf506dcb2cb3.jpg",
              "height": 320,
              "width": 320
            },
            {
              "url": "http://images.gotinder.com/58522c89b0b6548d2c478b82/172x172_0caea781-2dea-4100-b4ab-cf506dcb2cb3.jpg",
              "height": 172,
              "width": 172
            },
            {
              "url": "http://images.gotinder.com/58522c89b0b6548d2c478b82/84x84_0caea781-2dea-4100-b4ab-cf506dcb2cb3.jpg",
              "height": 84,
              "width": 84
            }
          ],
          "fileName": "0caea781-2dea-4100-b4ab-cf506dcb2cb3.jpg",
          "extension": "jpg"
        },
        {
          "id": "f39185f3-d795-4bbf-ae89-4ec95c65b40c",
          "url": "http://images.gotinder.com/58522c89b0b6548d2c478b82/f39185f3-d795-4bbf-ae89-4ec95c65b40c.jpg",
          "processedFiles": [
            {
              "url": "http://images.gotinder.com/58522c89b0b6548d2c478b82/640x640_f39185f3-d795-4bbf-ae89-4ec95c65b40c.jpg",
              "height": 640,
              "width": 640
            },
            {
              "url": "http://images.gotinder.com/58522c89b0b6548d2c478b82/320x320_f39185f3-d795-4bbf-ae89-4ec95c65b40c.jpg",
              "height": 320,
              "width": 320
            },
            {
              "url": "http://images.gotinder.com/58522c89b0b6548d2c478b82/172x172_f39185f3-d795-4bbf-ae89-4ec95c65b40c.jpg",
              "height": 172,
              "width": 172
            },
            {
              "url": "http://images.gotinder.com/58522c89b0b6548d2c478b82/84x84_f39185f3-d795-4bbf-ae89-4ec95c65b40c.jpg",
              "height": 84,
              "width": 84
            }
          ],
          "fileName": "f39185f3-d795-4bbf-ae89-4ec95c65b40c.jpg",
          "extension": "jpg"
        },
        {
          "id": "3043057f-6322-4831-885d-68029bab72f1",
          "url": "http://images.gotinder.com/58522c89b0b6548d2c478b82/3043057f-6322-4831-885d-68029bab72f1.jpg",
          "processedFiles": [
            {
              "url": "http://images.gotinder.com/58522c89b0b6548d2c478b82/640x640_3043057f-6322-4831-885d-68029bab72f1.jpg",
              "height": 640,
              "width": 640
            },
            {
              "url": "http://images.gotinder.com/58522c89b0b6548d2c478b82/320x320_3043057f-6322-4831-885d-68029bab72f1.jpg",
              "height": 320,
              "width": 320
            },
            {
              "url": "http://images.gotinder.com/58522c89b0b6548d2c478b82/172x172_3043057f-6322-4831-885d-68029bab72f1.jpg",
              "height": 172,
              "width": 172
            },
            {
              "url": "http://images.gotinder.com/58522c89b0b6548d2c478b82/84x84_3043057f-6322-4831-885d-68029bab72f1.jpg",
              "height": 84,
              "width": 84
            }
          ],
          "fileName": "3043057f-6322-4831-885d-68029bab72f1.jpg",
          "extension": "jpg"
        },
        {
          "id": "baf2b17c-ebd5-423c-8aad-0cfc4e656748",
          "url": "http://images.gotinder.com/58522c89b0b6548d2c478b82/baf2b17c-ebd5-423c-8aad-0cfc4e656748.jpg",
          "processedFiles": [
            {
              "url": "http://images.gotinder.com/58522c89b0b6548d2c478b82/640x640_baf2b17c-ebd5-423c-8aad-0cfc4e656748.jpg",
              "height": 640,
              "width": 640
            },
            {
              "url": "http://images.gotinder.com/58522c89b0b6548d2c478b82/320x320_baf2b17c-ebd5-423c-8aad-0cfc4e656748.jpg",
              "height": 320,
              "width": 320
            },
            {
              "url": "http://images.gotinder.com/58522c89b0b6548d2c478b82/172x172_baf2b17c-ebd5-423c-8aad-0cfc4e656748.jpg",
              "height": 172,
              "width": 172
            },
            {
              "url": "http://images.gotinder.com/58522c89b0b6548d2c478b82/84x84_baf2b17c-ebd5-423c-8aad-0cfc4e656748.jpg",
              "height": 84,
              "width": 84
            }
          ],
          "fileName": "baf2b17c-ebd5-423c-8aad-0cfc4e656748.jpg",
          "extension": "jpg"
        },
        {
          "id": "5bcca671-cf8a-4027-8bfd-5beed823df3c",
          "url": "http://images.gotinder.com/58522c89b0b6548d2c478b82/5bcca671-cf8a-4027-8bfd-5beed823df3c.jpg",
          "processedFiles": [
            {
              "url": "http://images.gotinder.com/58522c89b0b6548d2c478b82/640x640_5bcca671-cf8a-4027-8bfd-5beed823df3c.jpg",
              "height": 640,
              "width": 640
            },
            {
              "url": "http://images.gotinder.com/58522c89b0b6548d2c478b82/320x320_5bcca671-cf8a-4027-8bfd-5beed823df3c.jpg",
              "height": 320,
              "width": 320
            },
            {
              "url": "http://images.gotinder.com/58522c89b0b6548d2c478b82/172x172_5bcca671-cf8a-4027-8bfd-5beed823df3c.jpg",
              "height": 172,
              "width": 172
            },
            {
              "url": "http://images.gotinder.com/58522c89b0b6548d2c478b82/84x84_5bcca671-cf8a-4027-8bfd-5beed823df3c.jpg",
              "height": 84,
              "width": 84
            }
          ],
          "fileName": "5bcca671-cf8a-4027-8bfd-5beed823df3c.jpg",
          "extension": "jpg"
        }
      ],
      "jobs": [],
      "schools": [
        {
          "id": "170903812992669",
          "name": "Cibertec Oficial"
        },
        {
          "id": "180331952049583",
          "name": "Cibertec Sede Norte"
        }
      ],
      "teaser": {
        "type": "school",
        "string": "Cibertec Oficial"
      },
      "teasers": [
        {
          "type": "school",
          "string": "Cibertec Oficial"
        }
      ],
      "gender": 1,
      "birth_date_info": "fuzzy birthdate active, not displaying real birth_date",
      "s_number": 300253336
    }
  ]
}
